light
	pos:		5.0  -3.0  10.0
	color:		0xFFFFFF

light
	pos:		-5.0  -3.0  10.0
	color:		0xFFFFFF

plane
	pos:		0.0  -1.0  0.0
	d:			1.0
	color:		0x555555

plane
	pos:		0.0  0.0  -1.0
	d:			20.0
	color:		0x555555
